module github.com/andygrunwald/go-jira

go 1.12

require (
	github.com/dgrijalva/jwt-go v3.2.0+incompatible
	github.com/fatih/structs v1.1.0
	github.com/google/go-cmp v0.3.0
	github.com/google/go-querystring v1.0.0
	github.com/pkg/errors v0.8.0
	github.com/trivago/tgo v1.0.7
	golang.org/x/crypto v0.0.0-20190426145343-a29dc8fdc734
)
